{
  "title":"Expertise",
  "expertIn": 
  ["Our aim is not exactly that of supporting on the outside the demands formulated inside for the improvement of some details of the prison regime. It is not that we turn up our nose at such demands, since we know how things go in prison. Above all, we seek to fight against the idea of imprisonment itself. We want to succeed in the destruction of these damned institutions. Therefore, we can encourage and take up every sort of demand that contains the only vital demand: 'Air!' - -Os Cangaceiros, *A Crime Called Freedom*", "It is important to note that a decrease in the number of people incarcerated does not necessarily mean that our society, as a whole, is becoming a less carceral one. As the War on Drugs loses legitimacy, attempts to decarcerate nonviolent drug offenders have sometimes been accompanied by an increase in punitivity for 'violent' convicts ... In some places we are also seeing a pivot toward private reentry programs, private probation services, parole and other forms of custodianship that involve surveillance and monitoring. It is possible that as technologies of control are perfected, carcerality will bleed into society. In this case, the distinction between the inside and the outside of prison will become blurrier. It is even possible to imagine a future where the prison as a physical structure is superseded by total surveillance without physical confinement."]
}
